489359474;27-07-2019 00:00:00
489208734;27-07-2019 00:00:00
489649063;27-07-2019 00:00:00
489969780;27-07-2019 00:00:00
489568445;27-07-2019 00:00:00
490085496;27-07-2019 00:00:00
490154143;27-07-2019 00:00:00
489848187;27-07-2019 00:00:00
489834889;27-07-2019 00:00:00
489880411;27-07-2019 00:00:00
483254738;28-07-2019 00:00:00
496317992;03-08-2019 00:00:00
496221471;05-08-2019 00:00:00
498525756;06-08-2019 00:00:00
505266877;09-08-2019 00:00:00
515709492;14-08-2019 00:00:00
519110408;16-08-2019 00:00:00
555896907;24-08-2019 00:00:00
538638130;26-08-2019 00:00:00
556278236;03-09-2019 00:00:00
556086500;03-09-2019 00:00:00
559322950;05-09-2019 00:00:00
571520889;07-09-2019 00:00:00
579937169;16-09-2019 00:00:00
583623626;18-09-2019 00:00:00
596497379;25-09-2019 00:00:00
596498574;25-09-2019 00:00:00
596507139;25-09-2019 00:00:00
596505377;25-09-2019 00:00:00
596497922;25-09-2019 00:00:00
596505671;25-09-2019 00:00:00
596497011;25-09-2019 00:00:00
596494508;25-09-2019 00:00:00
596497322;25-09-2019 00:00:00
596498312;25-09-2019 00:00:00
596497127;25-09-2019 00:00:00
596499056;25-09-2019 00:00:00
596498929;25-09-2019 00:00:00
